ℹ Installing document in temporary library
ℹ Building vignettes for document
--- re-building ‘Introduction_to_document.Rmd’ using rmarkdown


processing file: Introduction_to_document.Rmd
1/15                  
2/15 [unnamed-chunk-1]
3/15                  
4/15 [unnamed-chunk-2]
5/15                  
6/15 [unnamed-chunk-3]
7/15                  
8/15 [unnamed-chunk-4]
9/15                  
10/15 [unnamed-chunk-5]
11/15 [unnamed-chunk-6]
12/15                  
13/15 [unnamed-chunk-7]
14/15                  
15/15 [unnamed-chunk-8]
output file: Introduction_to_document.knit.md

Warning: The vignette title specified in \VignetteIndexEntry{} is different from the title in the YAML metadata. The former is "An Introduction to document", and the latter is "An Introduction to *document*". If that is intentional, you may set options(rmarkdown.html_vignette.check_title = FALSE) to suppress this check.
/usr/bin/pandoc +RTS -K512m -RTS Introduction_to_document.knit.md --to html4 --from markdown+autolink_bare_uris+tex_math_single_backslash --output /home/qwer/git/cyclops/fvafrcu/document/vignettes/Introduction_to_document.html --lua-filter /home/qwer/svn/R/r-devel/build/library/rmarkdown/rmarkdown/lua/pagebreak.lua --lua-filter /home/qwer/svn/R/r-devel/build/library/rmarkdown/rmarkdown/lua/latex-div.lua --self-contained --section-divs --template /home/qwer/svn/R/r-devel/build/library/rmarkdown/rmd/h/default.html --highlight-style pygments --css /home/qwer/svn/R/r-devel/build/library/rmarkdown/rmarkdown/templates/html_vignette/resources/vignette.css --mathjax --variable 'mathjax-url=https://mathjax.rstudio.com/latest/MathJax.js?config=TeX-AMS-MML_HTMLorMML' --include-in-header /tmp/RtmpPtO7fv/rmarkdown-str44b949fb899d.html 

Output created: Introduction_to_document.html
--- finished re-building ‘Introduction_to_document.Rmd’

ℹ Copying vignettes
ℹ Moving 'Introduction_to_document.html' and 'Introduction_to_document.R' to
  'doc/'
ℹ Copying 'Introduction_to_document.Rmd' to 'doc/'
ℹ Building vignette index


processing file: /home/qwer/git/cyclops/fvafrcu/document/vignettes/Introduction_to_document.Rmd
1/15                  
2/15 [unnamed-chunk-1]
3/15                  
4/15 [unnamed-chunk-2]
5/15                  
6/15 [unnamed-chunk-3]
7/15                  
8/15 [unnamed-chunk-4]
9/15                  
10/15 [unnamed-chunk-5]
11/15 [unnamed-chunk-6]
12/15                  
13/15 [unnamed-chunk-7]
14/15                  
15/15 [unnamed-chunk-8]
output file: ./inst/doc/Introduction_to_document.R

[[1]]
[1] "./inst/doc/Introduction_to_document.R"

